{
  "project_info": {
    "project_number": "823635053631",
    "firebase_url": "https://likeiu-252817.firebaseio.com",
    "project_id": "likeiu-252817",
    "storage_bucket": "likeiu-252817.appspot.com"
  },
  "client": [
    {
      "client_info": {
        "mobilesdk_app_id": "1:823635053631:android:f5d260edc540af1f963c8a",
        "android_client_info": {
          "package_name": "Likeiu.App.com"
        }
      },
      "oauth_client": [
        {
          "client_id": "823635053631-olmsp44a6n94o784lkdejt5400dad01p.apps.googleusercontent.com",
          "client_type": 1,
          "android_info": {
            "package_name": "Likeiu.App.com",
            "certificate_hash": "102a8565ed1e3b2340e10e858b035ae75ac865c4"
          }
        },
        {
          "client_id": "823635053631-s9am3cn1vl7iije3to4unbflnnaqsgpt.apps.googleusercontent.com",
          "client_type": 3
        }
      ],
      "api_key": [
        {
          "current_key": "AIzaSyARsFsCCpQkYcbzSBa-Z0S85RQzAzsLX94"
        }
      ],
      "services": {
        "appinvite_service": {
          "other_platform_oauth_client": [
            {
              "client_id": "823635053631-s9am3cn1vl7iije3to4unbflnnaqsgpt.apps.googleusercontent.com",
              "client_type": 3
            }
          ]
        }
      }
    }
  ],
  "configuration_version": "1"
}