<?xml version="1.0" encoding="utf-8"?>
<!-- Generator: Adobe Illustrator 22.1.0, SVG Export Plug-In . SVG Version: 6.00 Build 0)  -->
<svg version="1.1" id="Capa_1" xmlns="http://www.w3.org/2000/svg" xmlns:xlink="http://www.w3.org/1999/xlink" x="0px" y="0px"
	 viewBox="0 0 150 106" style="enable-background:new 0 0 150 106;" xml:space="preserve">
<style type="text/css">
	.st0{fill:#1C1A1A;}
	.st1{fill:#3D5BD5;}
</style>
<path id="svg_18" class="st0" d="M56.6,73.6L52,84.1h-1.5l-4.6-10.5h1.6l3.8,8.6l3.8-8.6C55.1,73.6,56.6,73.6,56.6,73.6z M66.3,82.8
	v1.3h-7.6V73.6h7.4v1.3h-5.9v3.2h5.3v1.3h-5.3v3.4H66.3z M76.5,84.1l-2.3-3.2c-0.3,0-0.5,0-0.7,0H71v3.2h-1.5V73.6h4.1
	c1.4,0,2.4,0.3,3.2,1s1.2,1.5,1.2,2.7c0,0.8-0.2,1.5-0.6,2.1c-0.4,0.6-1,1-1.7,1.2l2.5,3.5C78.2,84.1,76.5,84.1,76.5,84.1z
	 M73.6,79.7c1,0,1.7-0.2,2.2-0.6c0.5-0.4,0.8-1,0.8-1.8c0-0.8-0.3-1.3-0.8-1.7c-0.5-0.4-1.2-0.6-2.2-0.6H71v4.7
	C71,79.7,73.6,79.7,73.6,79.7z M95.7,84.1l0-7.7l-3.8,6.4h-0.7l-3.8-6.3v7.6h-1.4V73.6h1.2l4.4,7.4l4.3-7.4h1.2l0,10.5H95.7z
	 M101,73.6h1.5v10.5H101V73.6z M25.9,102.3c-1,0-2-0.2-2.9-0.7c-0.8-0.5-1.5-1.1-2-1.9c-0.5-0.8-0.7-1.7-0.7-2.8
	c0-1,0.2-1.9,0.7-2.7c0.5-0.8,1.1-1.5,2-1.9c0.8-0.5,1.8-0.7,2.8-0.7c0.8,0,1.6,0.1,2.3,0.4c0.7,0.3,1.3,0.7,1.7,1.2l-1,0.9
	c-0.8-0.8-1.8-1.2-3-1.2c-0.8,0-1.5,0.2-2.1,0.5s-1.1,0.8-1.5,1.5c-0.3,0.6-0.5,1.3-0.5,2.1s0.2,1.4,0.5,2.1
	c0.4,0.6,0.9,1.1,1.5,1.4c0.6,0.3,1.3,0.5,2.1,0.5c1.2,0,2.2-0.4,3-1.3l1,0.9c-0.5,0.5-1.1,0.9-1.8,1.2
	C27.4,102.1,26.7,102.3,25.9,102.3z M39.2,99.5h-5.6l-1.2,2.6h-1.5l4.8-10.5h1.5l4.8,10.5h-1.6L39.2,99.5z M38.7,98.3l-2.3-5.1
	l-2.3,5.1H38.7z M44.2,91.6h1.5v9.2h5.7v1.3h-7.2V91.6z M61.5,100.8v1.3h-7.6V91.6h7.4v1.3h-5.9v3.2h5.3v1.3h-5.3v3.4H61.5z
	 M73.7,91.6v10.5h-1.2l-6.3-7.8v7.8h-1.5V91.6h1.2l6.3,7.8v-7.8H73.7z M77.6,91.6H82c1.1,0,2.1,0.2,3,0.7s1.5,1.1,2,1.9
	c0.5,0.8,0.7,1.7,0.7,2.7c0,1-0.2,1.9-0.7,2.7c-0.5,0.8-1.1,1.4-2,1.8s-1.8,0.7-3,0.7h-4.4V91.6L77.6,91.6z M82,100.8
	c0.8,0,1.6-0.2,2.2-0.5c0.7-0.3,1.2-0.8,1.5-1.4c0.3-0.6,0.5-1.3,0.5-2.1s-0.2-1.5-0.5-2.1c-0.3-0.6-0.8-1.1-1.5-1.4
	c-0.6-0.3-1.4-0.5-2.2-0.5h-2.8v7.9C79.1,100.8,82,100.8,82,100.8z M97.3,99.5h-5.6l-1.2,2.6H89l4.8-10.5h1.5l4.8,10.5h-1.6
	L97.3,99.5z M96.8,98.3l-2.3-5.1l-2.3,5.1H96.8z M109.4,102.1l-2.3-3.2c-0.3,0-0.5,0-0.7,0h-2.6v3.2h-1.5V91.6h4.1
	c1.4,0,2.4,0.3,3.2,1s1.2,1.5,1.2,2.7c0,0.8-0.2,1.5-0.6,2.1s-1,1-1.7,1.2l2.5,3.5C111,102.1,109.4,102.1,109.4,102.1z M106.4,97.7
	c0.9,0,1.7-0.2,2.2-0.6c0.5-0.4,0.8-1,0.8-1.8c0-0.8-0.3-1.3-0.8-1.7c-0.5-0.4-1.2-0.6-2.2-0.6h-2.6v4.7
	C103.8,97.7,106.4,97.7,106.4,97.7z M114,91.6h1.5v10.5H114V91.6z M124.1,102.3c-1.1,0-2-0.2-2.9-0.7c-0.8-0.5-1.5-1.1-2-1.9
	c-0.5-0.8-0.7-1.7-0.7-2.7s0.2-1.9,0.7-2.7c0.5-0.8,1.2-1.5,2-1.9c0.8-0.5,1.8-0.7,2.9-0.7c1.1,0,2,0.2,2.8,0.7
	c0.8,0.5,1.5,1.1,2,1.9c0.5,0.8,0.7,1.7,0.7,2.7c0,1-0.2,1.9-0.7,2.8c-0.5,0.8-1.1,1.4-2,1.9C126.1,102,125.2,102.3,124.1,102.3z
	 M124.1,100.9c0.8,0,1.5-0.2,2.1-0.5c0.6-0.3,1.1-0.8,1.5-1.4c0.4-0.6,0.5-1.3,0.5-2.1s-0.2-1.4-0.5-2.1c-0.3-0.6-0.8-1.1-1.5-1.5
	c-0.6-0.3-1.3-0.5-2.1-0.5s-1.5,0.2-2.1,0.5c-0.6,0.3-1.1,0.8-1.5,1.5c-0.3,0.6-0.5,1.3-0.5,2.1s0.2,1.4,0.5,2.1
	c0.4,0.6,0.8,1.1,1.5,1.4C122.7,100.7,123.4,100.9,124.1,100.9z"/>
<path id="svg_19" class="st1" d="M93,7.9h-6.6V3c0-1-0.8-1.7-1.7-1.7c-1,0-1.7,0.8-1.7,1.7v4.9H67V3c0-1-0.8-1.7-1.7-1.7
	S63.5,2.1,63.5,3v4.9h-6.6c-3.6,0-6.5,2.9-6.5,6.5v30.4c0,3.6,2.9,6.5,6.5,6.5h36.1c3.6,0,6.5-2.9,6.5-6.5V14.4
	C99.5,10.8,96.6,7.9,93,7.9z M56.9,11.4h6.6v2.4c0,1,0.8,1.7,1.7,1.7s1.7-0.8,1.7-1.7v-2.4h16v2.4c0,1,0.8,1.7,1.7,1.7
	c1,0,1.7-0.8,1.7-1.7v-2.4H93c1.7,0,3,1.4,3,3v5.8H53.9v-5.7C53.9,12.7,55.3,11.4,56.9,11.4z M93,47.9H56.9c-1.7,0-3-1.4-3-3V23.6
	h42.2v21.2C96.1,46.5,94.7,47.9,93,47.9z"/>
</svg>
